OneComplement/simulation/qsim/one.msim.vcd
$comment
	File created using the following command:
		vcd file one.msim.vcd -direction
$end
$date
	Thu Dec 15 13:06:37 2022
$end
$version
	ModelSim Version 10.1d
$end
$timescale
	1ps
$end
$scope module one_vlg_vec_tst $end
$var reg 1 ! a0 $end
$var reg 1 " a1 $end
$var reg 1 # a2 $end
$var reg 1 $ a3 $end
$var wire 1 % b0 $end
$var wire 1 & b1 $end
$var wire 1 ' b2 $end
$var wire 1 ( b3 $end
$var wire 1 ) sampler $end
$scope module i1 $end
$var wire 1 * gnd $end
$var wire 1 + vcc $end
$var wire 1 , unknown $end
$var tri1 1 - devclrn $end
$var tri1 1 . devpor $end
$var tri1 1 / devoe $end
$var wire 1 0 b3~output_o $end
$var wire 1 1 b2~output_o $end
$var wire 1 2 b1~output_o $end
$var wire 1 3 b0~output_o $end
$var wire 1 4 a3~input_o $end
$var wire 1 5 a2~input_o $end
$var wire 1 6 a1~input_o $end
$var wire 1 7 a0~input_o $end
$upscope $end
$upscope $end
$enddefinitions $end
#0
$dumpvars
0!
0"
1#
0$
1%
1&
0'
1(
x)
0*
1+
x,
1-
1.
1/
10
01
12
13
04
15
06
07
$end
#80000
0#
1"
05
16
0)
11
02
1'
0&
#160000
1!
17
1)
03
0%
#240000
1$
0"
14
06
0)
00
12
0(
1&
#320000
1#
0$
1"
15
04
16
1)
01
10
02
0'
1(
0&
#400000
0!
0#
07
05
0)
13
11
1%
1'
#480000
1$
1!
1#
14
17
15
1)
00
03
01
0(
0%
0'
#560000
0"
0#
06
05
0)
12
11
1&
1'
#640000
0$
1"
1#
04
16
15
1)
10
02
01
1(
0&
0'
#720000
0!
1$
0"
07
14
06
0)
13
00
12
1%
0(
1&
#800000
1!
0$
1"
17
04
16
1)
03
10
02
0%
1(
0&
#880000
0#
0!
1$
0"
05
07
14
06
0)
11
13
00
12
1'
1%
0(
1&
#960000
1#
0$
1"
15
04
16
1)
01
10
02
0'
1(
0&
