A-B=C/simulation/qsim/ab.msim.vcd
$comment
	File created using the following command:
		vcd file ab.msim.vcd -direction
$end
$date
	Fri Dec 16 12:50:20 2022
$end
$version
	ModelSim Version 10.1d
$end
$timescale
	1ps
$end
$scope module ab_vlg_vec_tst $end
$var reg 4 ! a [3:0] $end
$var reg 4 " b [3:0] $end
$var reg 1 # cin $end
$var wire 1 $ c [3] $end
$var wire 1 % c [2] $end
$var wire 1 & c [1] $end
$var wire 1 ' c [0] $end
$var wire 1 ( cout $end
$var wire 1 ) sampler $end
$scope module i1 $end
$var wire 1 * gnd $end
$var wire 1 + vcc $end
$var wire 1 , unknown $end
$var tri1 1 - devclrn $end
$var tri1 1 . devpor $end
$var tri1 1 / devoe $end
$var wire 1 0 cin~input_o $end
$var wire 1 1 c[0]~output_o $end
$var wire 1 2 c[1]~output_o $end
$var wire 1 3 c[2]~output_o $end
$var wire 1 4 c[3]~output_o $end
$var wire 1 5 cout~output_o $end
$var wire 1 6 b[0]~input_o $end
$var wire 1 7 a[0]~input_o $end
$var wire 1 8 x1|x0|x0|s~combout $end
$var wire 1 9 b[1]~input_o $end
$var wire 1 : a[1]~input_o $end
$var wire 1 ; x1|x1|x1|s~combout $end
$var wire 1 < x0|x1|x1|x1|c~combout $end
$var wire 1 = b[2]~input_o $end
$var wire 1 > a[2]~input_o $end
$var wire 1 ? x1|x1|x2|c~0_combout $end
$var wire 1 @ x1|x2|x1|s~combout $end
$var wire 1 A a[3]~input_o $end
$var wire 1 B x1|x3|x1|s~0_combout $end
$var wire 1 C x1|x2|x2|c~0_combout $end
$var wire 1 D b[3]~input_o $end
$var wire 1 E x1|x3|x1|s~combout $end
$upscope $end
$upscope $end
$enddefinitions $end
#0
$dumpvars
b1101 !
b1100 "
x#
1'
0&
0%
0$
0(
x)
0*
1+
x,
1-
1.
1/
x0
11
02
03
04
05
06
17
18
09
0:
0;
0<
1=
1>
0?
0@
1A
0B
1C
1D
0E
$end
#80000
b1111 !
b100 "
b0 "
b10 "
19
0=
0D
1:
0)
1?
1<
0C
1@
1E
1C
13
14
1%
1$
0E
04
0$
1E
14
1$
#160000
b11 "
b1011 "
b1001 "
16
09
1D
1)
1;
08
0E
12
01
04
1&
0'
0$
#240000
b1110 !
b1100 !
b1000 "
b1010 "
06
19
07
0:
0)
0?
0@
03
0%
#320000
b100 !
b0 !
b10 "
b1 !
b11 !
0D
17
1:
0>
0A
1)
1?
0C
1B
1E
0;
18
1@
1C
14
02
11
13
1$
0&
1'
1%
0@
03
0%
0E
04
0$
#400000
b11 "
b1011 !
b1111 !
b1101 !
0:
1>
1A
16
0)
0?
0B
1;
1@
08
12
13
01
1&
1%
0'
0@
1E
03
14
0%
1$
#480000
b1 "
b1100 !
b0 "
b1000 !
b1010 !
07
1:
0>
06
09
1)
0C
1B
0<
1@
13
1%
0@
03
0%
#560000
b1 "
16
0)
0B
1?
1<
0;
18
1C
02
11
0&
1'
0E
04
0$
1E
14
1$
#640000
b101 "
b1011 !
b1001 !
17
0:
1=
1)
0C
08
1@
01
13
0'
1%
0E
04
0$
#720000
b1 !
b111 "
b101 !
b111 !
19
1:
1>
0A
0)
1B
1C
0@
03
0%
#800000
b11 "
b1111 !
b1101 !
0:
1A
0=
1)
0?
0B
1;
1@
12
13
1&
1%
0@
1E
03
14
0%
1$
#880000
b1100 !
b1000 !
b0 !
b10 !
07
1:
0>
0A
0)
0C
1B
18
1@
11
13
1'
1%
#960000
b1011 "
b1010 "
b1010 !
1A
06
1D
1)
0B
1?
0;
08
0E
1C
02
01
04
0&
0'
0$
1E
0@
14
03
1$
0%
0E
04
0$
