and_3/simulation/qsim/and_3.msim.vcd
$comment
	File created using the following command:
		vcd file and_3.msim.vcd -direction
$end
$date
	Fri Dec 09 19:39:09 2022
$end
$version
	ModelSim Version 10.1d
$end
$timescale
	1ps
$end
$scope module and_3_vlg_vec_tst $end
$var reg 3 ! x [2:0] $end
$var wire 1 " z $end
$var wire 1 # sampler $end
$scope module i1 $end
$var wire 1 $ gnd $end
$var wire 1 % vcc $end
$var wire 1 & unknown $end
$var tri1 1 ' devclrn $end
$var tri1 1 ( devpor $end
$var tri1 1 ) devoe $end
$var wire 1 * z~output_o $end
$var wire 1 + x[0]~input_o $end
$var wire 1 , x[2]~input_o $end
$var wire 1 - x[1]~input_o $end
$var wire 1 . z~0_combout $end
$upscope $end
$upscope $end
$enddefinitions $end
#0
$dumpvars
b0 !
0"
x#
0$
1%
x&
1'
1(
1)
0*
0+
0,
0-
0.
$end
#80000
b100 !
1,
0#
#160000
b0 !
0,
1#
#240000
b10 !
b11 !
1+
1-
0#
#400000
b111 !
b101 !
0-
1,
1#
#480000
b1 !
0,
0#
#640000
b0 !
0+
1#
#720000
b10 !
b110 !
b111 !
1+
1-
1,
0#
1.
1*
1"
#800000
b110 !
0+
1#
0.
0*
0"
#880000
b100 !
b101 !
1+
0-
0#
#960000
b111 !
b110 !
0+
1-
1#
