decoder/simulation/qsim/decoder_4.msim.vcd
$comment
	File created using the following command:
		vcd file decoder_4.msim.vcd -direction
$end
$date
	Sun Dec 11 06:48:52 2022
$end
$version
	ModelSim Version 10.1d
$end
$timescale
	1ps
$end
$scope module decoder_4_vlg_vec_tst $end
$var reg 1 ! a0 $end
$var reg 1 " a1 $end
$var reg 1 # e $end
$var wire 1 $ y $end
$var wire 1 % y1 $end
$var wire 1 & y2 $end
$var wire 1 ' y3 $end
$var wire 1 ( sampler $end
$scope module i1 $end
$var wire 1 ) gnd $end
$var wire 1 * vcc $end
$var wire 1 + unknown $end
$var tri1 1 , devclrn $end
$var tri1 1 - devpor $end
$var tri1 1 . devoe $end
$var wire 1 / e~input_o $end
$var wire 1 0 y~output_o $end
$var wire 1 1 y1~output_o $end
$var wire 1 2 y2~output_o $end
$var wire 1 3 y3~output_o $end
$var wire 1 4 a0~input_o $end
$var wire 1 5 a1~input_o $end
$var wire 1 6 y~0_combout $end
$var wire 1 7 y1~0_combout $end
$var wire 1 8 y1~1_combout $end
$var wire 1 9 y1~2_combout $end
$upscope $end
$upscope $end
$enddefinitions $end
#0
$dumpvars
0!
0"
1#
1$
0%
0&
0'
x(
0)
1*
x+
1,
1-
1.
1/
10
01
02
03
04
05
06
07
08
09
$end
#80000
1"
15
0(
16
17
00
11
0$
1%
#160000
0"
05
1(
06
07
10
01
1$
0%
#240000
1"
15
0(
16
17
00
11
0$
1%
#320000
1!
14
1(
19
07
13
01
1'
0%
#400000
0!
04
0(
09
17
03
11
0'
1%
#480000
0"
05
1(
06
07
10
01
1$
0%
#560000
1"
15
0(
16
17
00
11
0$
1%
#640000
1!
14
1(
19
07
13
01
1'
0%
#800000
0!
04
0(
09
17
03
11
0'
1%
#960000
0"
05
1(
06
07
10
01
1$
0%
