half_adder/simulation/qsim/half.msim.vcd
$comment
	File created using the following command:
		vcd file half.msim.vcd -direction
$end
$date
	Thu Dec 15 08:49:53 2022
$end
$version
	ModelSim Version 10.1d
$end
$timescale
	1ps
$end
$scope module half_vlg_vec_tst $end
$var reg 1 ! a $end
$var reg 1 " b $end
$var wire 1 # c $end
$var wire 1 $ s $end
$var wire 1 % sampler $end
$scope module i1 $end
$var wire 1 & gnd $end
$var wire 1 ' vcc $end
$var wire 1 ( unknown $end
$var tri1 1 ) devclrn $end
$var tri1 1 * devpor $end
$var tri1 1 + devoe $end
$var wire 1 , s~output_o $end
$var wire 1 - c~output_o $end
$var wire 1 . a~input_o $end
$var wire 1 / b~input_o $end
$var wire 1 0 s~0_combout $end
$var wire 1 1 c~0_combout $end
$upscope $end
$upscope $end
$enddefinitions $end
#0
$dumpvars
0!
0"
0#
0$
x%
0&
1'
x(
1)
1*
1+
0,
0-
0.
0/
00
01
$end
#240000
1!
1.
0%
10
1,
1$
#400000
1"
1/
1%
11
00
1-
0,
1#
0$
#480000
0!
0.
0%
01
10
0-
1,
0#
1$
#640000
1!
1.
1%
11
00
1-
0,
1#
0$
#720000
0"
0/
0%
01
10
0-
1,
0#
1$
#800000
1"
1/
1%
11
00
1-
0,
1#
0$
#880000
0!
0.
0%
01
10
0-
1,
0#
1$
#960000
0"
1!
0/
1.
1%
