4bitFullAdder/simulation/qsim/four.msim.vcd
$comment
	File created using the following command:
		vcd file four.msim.vcd -direction
$end
$date
	Fri Dec 16 09:58:05 2022
$end
$version
	ModelSim Version 10.1d
$end
$timescale
	1ps
$end
$scope module four_vlg_vec_tst $end
$var reg 4 ! a [3:0] $end
$var reg 4 " b [3:0] $end
$var reg 1 # cin $end
$var wire 1 $ c $end
$var wire 1 % s [3] $end
$var wire 1 & s [2] $end
$var wire 1 ' s [1] $end
$var wire 1 ( s [0] $end
$var wire 1 ) sampler $end
$scope module i1 $end
$var wire 1 * gnd $end
$var wire 1 + vcc $end
$var wire 1 , unknown $end
$var tri1 1 - devclrn $end
$var tri1 1 . devpor $end
$var tri1 1 / devoe $end
$var wire 1 0 cin~input_o $end
$var wire 1 1 s[0]~output_o $end
$var wire 1 2 s[1]~output_o $end
$var wire 1 3 s[2]~output_o $end
$var wire 1 4 s[3]~output_o $end
$var wire 1 5 c~output_o $end
$var wire 1 6 b[0]~input_o $end
$var wire 1 7 a[0]~input_o $end
$var wire 1 8 x0|x0|s~combout $end
$var wire 1 9 b[1]~input_o $end
$var wire 1 : a[1]~input_o $end
$var wire 1 ; x1|x1|s~0_combout $end
$var wire 1 < b[2]~input_o $end
$var wire 1 = a[2]~input_o $end
$var wire 1 > x1|x2|c~0_combout $end
$var wire 1 ? x2|x1|s~0_combout $end
$var wire 1 @ a[3]~input_o $end
$var wire 1 A x2|x2|c~0_combout $end
$var wire 1 B b[3]~input_o $end
$var wire 1 C x3|x1|s~combout $end
$var wire 1 D x3|x2|c~0_combout $end
$upscope $end
$upscope $end
$enddefinitions $end
#0
$dumpvars
b110 !
b1000 "
0#
0$
0(
1'
1&
1%
x)
0*
1+
x,
1-
1.
1/
00
01
12
13
14
05
06
07
08
09
1:
1;
0<
1=
0>
1?
0@
0A
1B
1C
0D
$end
#80000
b1110 !
b1010 !
b1011 !
b0 "
b100 "
1<
0B
17
0=
1@
0)
18
11
1(
#160000
b101 "
b11 !
b10 !
07
0@
16
1)
0C
04
0%
#240000
b0 !
b1 !
17
0:
0)
08
01
0(
#320000
b111 "
b110 "
b0 !
07
06
19
1)
#400000
b100 !
b1110 "
b1010 "
b110 !
b1000 "
b1001 "
b111 !
16
09
0<
1B
17
1:
1=
0)
1>
0;
1C
1A
02
14
0'
1%
0?
03
0&
1D
0C
15
04
1$
0%
#480000
b11 !
b1101 "
b1100 "
06
1<
0=
1)
0>
1;
18
0A
12
11
1'
1(
1?
13
1&
0D
1C
05
14
0$
1%
#560000
b1011 !
b1110 "
b1111 !
b1111 "
16
19
1=
1@
0)
1>
1A
08
0?
1D
0C
01
03
15
04
0(
0&
1$
0%
1?
1C
13
14
1&
1%
#640000
b111 "
b1101 !
b11 "
b101 !
b1 "
0:
0@
09
0<
0B
1)
0>
0D
0?
0A
05
03
0$
0&
1?
13
1&
0C
04
0%
#720000
b100 !
b0 !
b1001 "
b1101 "
b1111 "
19
1<
1B
07
0=
0)
1C
18
14
11
1%
1(
#800000
b10 !
b110 !
b1011 "
b1001 "
09
0<
1:
1=
1)
#880000
b1000 "
b1110 !
b1010 !
b1100 "
0=
1@
06
1<
0)
1D
0C
08
15
04
01
1$
0%
0(
#960000
b1000 !
b1110 "
b0 !
b100 !
b1010 "
19
0<
0:
1=
0@
1)
0D
1C
05
14
0$
1%
