mux_2/simulation/qsim/mux_2.msim.vcd
$comment
	File created using the following command:
		vcd file mux_2.msim.vcd -direction
$end
$date
	Fri Dec 09 11:14:20 2022
$end
$version
	ModelSim Version 10.1d
$end
$timescale
	1ps
$end
$scope module mux_2_vlg_vec_tst $end
$var reg 2 ! i [1:0] $end
$var reg 1 " s $end
$var wire 1 # z $end
$var wire 1 $ sampler $end
$scope module i1 $end
$var wire 1 % gnd $end
$var wire 1 & vcc $end
$var wire 1 ' unknown $end
$var tri1 1 ( devclrn $end
$var tri1 1 ) devpor $end
$var tri1 1 * devoe $end
$var wire 1 + z~output_o $end
$var wire 1 , s~input_o $end
$var wire 1 - i[1]~input_o $end
$var wire 1 . i[0]~input_o $end
$var wire 1 / z~0_combout $end
$upscope $end
$upscope $end
$enddefinitions $end
#0
$dumpvars
b1 !
0"
0#
x$
0%
1&
x'
1(
1)
1*
0+
0,
0-
1.
0/
$end
#80000
b11 !
b10 !
1"
0.
1-
1,
0$
1/
1+
1#
#160000
b0 !
0-
1$
0/
0+
0#
#240000
b1 !
b11 !
1.
1-
0$
1/
1+
1#
#320000
0"
b1 !
0,
0-
1$
0/
0+
0#
#400000
b0 !
1"
b10 !
0.
1-
1,
0$
1/
1+
1#
#480000
b0 !
0-
1$
0/
0+
0#
#560000
b10 !
1-
0$
1/
1+
1#
#640000
b11 !
1.
1$
#720000
b10 !
0.
0$
#800000
0"
b0 !
0,
0-
1$
0/
0+
0#
#880000
b10 !
1-
0$
